.Xil/Vivado-19376-LAPTOP-QRG2S83U/hw_ila_data_1/zip_work/waveform.vcd
$date
        2023-Jun-02 16:56:06
$end
$version
        Vivado v2022.2 (64-bit)
$end
$timescale
        1ps
$end
$scope module dut $end
$var reg 8 " voltmeter2_inst/adc_data [7:0] $end
$var reg 14 * voltmeter2_inst/sin_wave [13:0] $end
$var reg 13 8 voltmeter2_inst/vrms [12:0] $end
$var reg 1 E _TRIGGER $end
$var reg 1 F _WINDOW $end
$var reg 1 G _GAP $end
$upscope $end
$enddefinitions $end
#0
$dumpvars
b1101100 "
b11110100011010 *
b1010111111 8
0E
1F
0G
$end
#57
b1101101 "
#58
b1101100 "
#59
b11110101000001 *
#60
b11110100011010 *
#61
b1101101 "
#62
b1101100 "
#63
b1101101 "
b11110101000001 *
#64
b1101100 "
b11110100011010 *
#65
b1101101 "
b11110101000001 *
#66
b11110100011010 *
#67
b11110101000001 *
#68
b1101100 "
#69
b1101101 "
#70
b1101100 "
b11110100011010 *
#71
b1101101 "
b11110101000001 *
#72
b11110100011010 *
#73
b11110101000001 *
#74
b1101100 "
#75
b1101101 "
#76
b11110100011010 *
#77
b11110101000001 *
#122
b1101110 "
#123
b1101101 "
#124
b11110101101000 *
#125
b11110101000001 *
#130
b1101110 "
#131
b1101101 "
#132
b1101110 "
b11110101101000 *
#133
b1101101 "
b11110101000001 *
#134
b11110101101000 *
#135
b11110101000001 *
#136
b1101110 "
#137
b1101101 "
#138
b11110101101000 *
#139
b11110101000001 *
#140
b1101110 "
#141
b1101101 "
#142
b1101110 "
b11110101101000 *
#143
b1101101 "
b11110101000001 *
#144
b1101110 "
b11110101101000 *
#145
b1101101 "
b11110101000001 *
#146
b1101110 "
b11110101101000 *
#147
b1101101 "
b11110101000001 *
#148
b1101110 "
b11110101101000 *
#149
b1101101 "
b11110101000001 *
#150
b1101110 "
b11110101101000 *
#151
b11110101000001 *
#152
b11110101101000 *
#155
b1101101 "
#156
b1101110 "
#157
b1101101 "
b11110101000001 *
#158
b1101110 "
b11110101101000 *
#159
b11110101000001 *
#160
b11110101101000 *
#188
b1101111 "
#189
b1101110 "
#190
b1101111 "
b11110110001111 *
#191
b1101110 "
b11110101101000 *
#192
b1101111 "
b11110110001111 *
#193
b1101110 "
b11110101101000 *
#194
b11110110001111 *
#195
b11110101101000 *
#196
b1101111 "
#197
b1101110 "
#198
b1101111 "
b11110110001111 *
#199
b1101110 "
b11110101101000 *
#200
b1101111 "
b11110110001111 *
#201
b1101110 "
b11110101101000 *
#202
b1101111 "
b11110110001111 *
#203
b1101110 "
b11110101101000 *
#204
b1101111 "
b11110110001111 *
#205
b1101110 "
b11110101101000 *
#206
b1101111 "
b11110110001111 *
#207
b1101110 "
b11110101101000 *
#208
b1101111 "
b11110110001111 *
#209
b1101110 "
b11110101101000 *
#210
b1101111 "
b11110110001111 *
#211
b1101110 "
b11110101101000 *
#212
b1101111 "
b11110110001111 *
#213
b1101110 "
b11110101101000 *
#214
b1101111 "
b11110110001111 *
#215
b1101110 "
b11110101101000 *
#216
b1101111 "
b11110110001111 *
#217
b1101110 "
b11110101101000 *
#218
b1101111 "
b11110110001111 *
#219
b1101110 "
b11110101101000 *
#220
b1101111 "
b11110110001111 *
#221
b11110101101000 *
#222
b11110110001111 *
#223
b1101110 "
#224
b1101111 "
#225
b11110101101000 *
#226
b11110110001111 *
#258
b1100000 "
#259
b1101111 "
#260
b1100000 "
b11101101000110 *
#261
b1101111 "
b11110110001111 *
#262
b11101101000110 *
#263
b11110110001111 *
#266
b1100000 "
#267
b1101111 "
#268
b1100000 "
b11101101000110 *
#269
b1101111 "
b11110110001111 *
#270
b1100000 "
b11101101000110 *
#271
b11110110001111 *
#272
b11101101000110 *
#273
b1101111 "
#275
b1100000 "
b11110110001111 *
#277
b1101111 "
b11101101000110 *
#278
b1100000 "
#279
b1101111 "
b11110110001111 *
#280
b1100000 "
b11101101000110 *
#281
b11110110001111 *
#282
b11101101000110 *
#284
b1101111 "
#286
b1100000 "
b11110110001111 *
#287
b1101111 "
#288
b1100000 "
b11101101000110 *
#289
b11110110001111 *
#290
b11101101000110 *
#297
b1101111 "
#298
b1100000 "
#299
b11110110001111 *
#300
b11101101000110 *
#315
b1101111 "
#317
b11110110001111 *
#325
b1101110 "
#326
b1101111 "
#327
b1101110 "
b11110101101000 *
#328
b1101111 "
b11110110001111 *
#329
b1101110 "
b11110101101000 *
#330
b1101111 "
b11110110001111 *
#331
b1101110 "
b11110101101000 *
#332
b11110110001111 *
#333
b11110101101000 *
#335
b1101101 "
#336
b1101110 "
#337
b11110101000001 *
#338
b11110101101000 *
#339
b1101101 "
#340
b1101110 "
#341
b1101101 "
b11110101000001 *
#342
b11110101101000 *
#343
b11110101000001 *
#346
b1101110 "
#347
b1101101 "
#348
b11110101101000 *
#349
b11110101000001 *
#364
b1101100 "
#365
b1101101 "
#366
b1101100 "
b11110100011010 *
#367
b1101101 "
b11110101000001 *
#368
b1101100 "
b11110100011010 *
#369
b1101101 "
b11110101000001 *
#370
b1101100 "
b11110100011010 *
#371
b11110101000001 *
#372
b11110100011010 *
#506
b1101101 "
#507
b1101100 "
#508
b11110101000001 *
#509
b1101101 "
b11110100011010 *
#510
b1101100 "
#511
b1101101 "
b11110101000001 *
#512
b1101100 "
b11110100011010 *
#513
b1101101 "
b11110101000001 *
#514
b1101100 "
b11110100011010 *
#515
b1101101 "
b11110101000001 *
#516
b1101100 "
b11110100011010 *
#517
b1101101 "
b11110101000001 *
#518
b11110100011010 *
#519
b11110101000001 *
#520
b1101100 "
#521
b1101101 "
#522
b11110100011010 *
#523
b11110101000001 *
#538
b1101100 "
#539
b1101101 "
#540
b11110100011010 *
#541
b11110101000001 *
#570
b1101110 "
#571
b1101101 "
#572
b1101110 "
b11110101101000 *
#573
b1101101 "
b11110101000001 *
#574
b11110101101000 *
#575
b11110101000001 *
#576
b1101110 "
#577
b1101101 "
#578
b1101110 "
b11110101101000 *
#579
b1101101 "
b11110101000001 *
#580
b1101110 "
b11110101101000 *
#581
b1101101 "
b11110101000001 *
#582
b11110101101000 *
#583
b11110101000001 *
#584
b1101110 "
#585
b1101101 "
#586
b1101110 "
b11110101101000 *
#587
b1101101 "
b11110101000001 *
#588
b1101110 "
b11110101101000 *
#589
b1101101 "
b11110101000001 *
#590
b1101110 "
b11110101101000 *
#591
b1101101 "
b11110101000001 *
#592
b1101110 "
b11110101101000 *
#593
b1101101 "
b11110101000001 *
#594
b1101110 "
b11110101101000 *
#595
b1101101 "
b11110101000001 *
#596
b1101110 "
b11110101101000 *
#597
b1101101 "
b11110101000001 *
#598
b1101110 "
b11110101101000 *
#599
b11110101000001 *
#600
b11110101101000 *
#601
b1101101 "
#602
b1101110 "
#603
b1101101 "
b11110101000001 *
#604
b1101110 "
b11110101101000 *
#605
b11110101000001 *
#606
b11110101101000 *
#630
b1101111 "
#631
b1101110 "
#632
b1101111 "
b11110110001111 *
#633
b1101110 "
b11110101101000 *
#634
b11110110001111 *
#635
b11110101101000 *
#636
b1101111 "
#637
b1101110 "
#638
b1101111 "
b11110110001111 *
#639
b1101110 "
b11110101101000 *
#640
b1101111 "
b11110110001111 *
#641
b1101110 "
b11110101101000 *
#642
b1101111 "
b11110110001111 *
#643
b1101110 "
b11110101101000 *
#644
b1101111 "
b11110110001111 *
#645
b1101110 "
b11110101101000 *
#646
b1101111 "
b11110110001111 *
#647
b1101110 "
b11110101101000 *
#648
b1101111 "
b11110110001111 *
#649
b1101110 "
b11110101101000 *
#650
b1101111 "
b11110110001111 *
#651
b1101110 "
b11110101101000 *
#652
b1101111 "
b11110110001111 *
#653
b1101110 "
b11110101101000 *
#654
b1101111 "
b11110110001111 *
#655
b11110101101000 *
#656
b11110110001111 *
#657
b1101110 "
#658
b1101111 "
#659
b1101110 "
b11110101101000 *
#660
b1101111 "
b11110110001111 *
#661
b1101110 "
b11110101101000 *
#662
b1101111 "
b11110110001111 *
#663
b11110101101000 *
#664
b11110110001111 *
#705
b1100000 "
#707
b1101111 "
b11101101000110 *
#708
b1100000 "
#709
b1101111 "
b11110110001111 *
#710
b11101101000110 *
#711
b1100000 "
b11110110001111 *
#712
b1101111 "
#713
b11101101000110 *
#714
b1100000 "
b11110110001111 *
#715
b1101111 "
#716
b11101101000110 *
#717
b1100000 "
b11110110001111 *
#719
b1101111 "
b11101101000110 *
#720
b1100000 "
#721
b11110110001111 *
#722
b11101101000110 *
#725
b1101111 "
#726
b1100000 "
#727
b1101111 "
b11110110001111 *
#728
b1100000 "
b11101101000110 *
#729
b11110110001111 *
#730
b11101101000110 *
#751
b1101111 "
#752
b1100000 "
#753
b1101111 "
b11110110001111 *
#754
b11101101000110 *
#755
b11110110001111 *
#763
b1101110 "
#764
b1101111 "
#765
b1101110 "
b11110101101000 *
#766
b1101111 "
b11110110001111 *
#767
b1101110 "
b11110101101000 *
#768
b1101111 "
b11110110001111 *
#769
b1101110 "
b11110101101000 *
#770
b1101111 "
b11110110001111 *
#771
b1101110 "
b11110101101000 *
#772
b11110110001111 *
#773
b11110101101000 *
#777
b1101101 "
#778
b1101110 "
#779
b11110101000001 *
#780
b11110101101000 *
#781
b1101101 "
#782
b1101110 "
#783
b1101101 "
b11110101000001 *
#784
b11110101101000 *
#785
b11110101000001 *
#800
b1101100 "
#801
b1101101 "
#802
b11110100011010 *
#803
b11110101000001 *
#808
b1101100 "
#809
b1101101 "
#810
b1101100 "
b11110100011010 *
#811
b11110101000001 *
#812
b11110100011010 *
#948
b1101101 "
#949
b1101100 "
#950
b11110101000001 *
#951
b11110100011010 *
#952
b1101101 "
#953
b1101100 "
#954
b11110101000001 *
#955
b11110100011010 *
#957
b1101101 "
#959
b11110101000001 *
#960
b1101100 "
#961
b1101101 "
#962
b11110100011010 *
#963
b11110101000001 *
#964
b1101100 "
#965
b1101101 "
#966
b1101100 "
b11110100011010 *
#967
b1101101 "
b11110101000001 *
#968
b11110100011010 *
#969
b11110101000001 *
#1008
b1101110 "
#1009
b1101101 "
#1010
b1101110 "
b11110101101000 *
#1011
b1101101 "
b11110101000001 *
#1012
b11110101101000 *
#1013
b11110101000001 *
#1016
b1101110 "
#1017
b1101101 "
#1018
b11110101101000 *
#1019
b11110101000001 *
#1024
b1101110 "
#1025
b1101101 "
#1026
b1101110 "
b11110101101000 *
#1027
b1101101 "
b11110101000001 *
#1028
b1101110 "
b11110101101000 *
#1029
b1101101 "
b11110101000001 *
#1030
b1101110 "
b11110101101000 *
#1031
b1101101 "
b11110101000001 *
#1032
b1101110 "
b11110101101000 *
#1033
b11110101000001 *
#1034
b11110101101000 *
#1035
b1101101 "
#1036
b1101110 "
#1037
b1101101 "
b11110101000001 *
#1038
b1101110 "
b11110101101000 *
#1039
b1101101 "
b11110101000001 *
#1040
b1101110 "
b11110101101000 *
#1041
b11110101000001 *
#1042
b11110101101000 *
#1043
b1101101 "
#1044
b1101110 "
#1045
b11110101000001 *
#1046
b11110101101000 *
#1072
b1101111 "
#1073
b1101110 "
#1074
b1101111 "
b11110110001111 *
#1075
b1101110 "
b11110101101000 *
#1076
b1101111 "
b11110110001111 *
#1077
b1101110 "
b11110101101000 *
#1078
b1101111 "
b11110110001111 *
#1079
b1101110 "
b11110101101000 *
#1080
b1101111 "
b11110110001111 *
#1081
b1101110 "
b11110101101000 *
#1082
b1101111 "
b11110110001111 *
#1083
b1101110 "
b11110101101000 *
#1084
b1101111 "
b11110110001111 *
#1085
b1101110 "
b11110101101000 *
#1086
b1101111 "
b11110110001111 *
#1087
b1101110 "
b11110101101000 *
#1088
b1101111 "
b11110110001111 *
#1089
b1101110 "
b11110101101000 *
#1090
b1101111 "
b11110110001111 *
#1091
b1101110 "
b11110101101000 *
#1092
b1101111 "
b11110110001111 *
#1093
b1101110 "
b11110101101000 *
#1094
b1101111 "
b11110110001111 *
#1095
b1101110 "
b11110101101000 *
#1096
b1101111 "
b11110110001111 *
#1097
b1101110 "
b11110101101000 *
#1098
b1101111 "
b11110110001111 *
#1099
b11110101101000 *
#1100
b11110110001111 *
#1101
b1101110 "
#1102
b1101111 "
#1103
b1101110 "
b11110101101000 *
#1104
b1101111 "
b11110110001111 *
#1105
b11110101101000 *
#1106
b11110110001111 *
#1111
b1101110 "
#1112
b1101111 "
#1113
b1101110 "
b11110101101000 *
#1114
b1101111 "
b11110110001111 *
#1115
b11110101101000 *
#1116
b11110110001111 *
#1146
b1100000 "
#1147
b1101111 "
#1148
b11101101000110 *
#1149
b11110110001111 *
#1152
b1100000 "
#1153
b1101111 "
#1154
b11101101000110 *
#1155
b11110110001111 *
#1162
b1100000 "
#1163
b1101111 "
#1164
b1100000 "
b11101101000110 *
#1165
b1101111 "
b11110110001111 *
#1166
b1100000 "
b11101101000110 *
#1167
b11110110001111 *
#1168
b1101111 "
b11101101000110 *
#1169
b1100000 "
#1170
b11110110001111 *
#1171
b1101111 "
b11101101000110 *
#1172
b1100000 "
#1173
b1101111 "
b11110110001111 *
#1174
b11101101000110 *
#1175
b1100000 "
b11110110001111 *
#1177
b1101111 "
b11101101000110 *
#1178
b1100000 "
#1179
b1101111 "
b11110110001111 *
#1180
b1100000 "
b11101101000110 *
#1181
b11110110001111 *
#1182
b11101101000110 *
#1183
b1101111 "
#1184
b1100000 "
#1185
b1101111 "
b11110110001111 *
#1186
b1100000 "
b11101101000110 *
#1187
b11110110001111 *
#1188
b11101101000110 *
#1205
b1101111 "
#1206
b1100000 "
#1207
b1101111 "
b11110110001111 *
#1208
b11101101000110 *
#1209
b11110110001111 *
#1215
b1101110 "
#1216
b1101111 "
#1217
b1101110 "
b11110101101000 *
#1218
b1101111 "
b11110110001111 *
#1219
b1101110 "
b11110101101000 *
#1220
b1101111 "
b11110110001111 *
#1221
b1101110 "
b11110101101000 *
#1222
b1101111 "
b11110110001111 *
#1223
b1101110 "
b11110101101000 *
#1224
b11110110001111 *
#1225
b11110101101000 *
#1237
b1101101 "
#1238
b1101110 "
#1239
b1101101 "
b11110101000001 *
#1240
b11110101101000 *
#1241
b11110101000001 *
#1264
b1101100 "
#1265
b1101101 "
#1266
b1101100 "
b11110100011010 *
#1267
b1101101 "
b11110101000001 *
#1268
b1101100 "
b11110100011010 *
#1269
b1101101 "
b11110101000001 *
#1270
b11110100011010 *
#1271
b11110101000001 *
#1272
b1101100 "
#1273
b1101101 "
#1274
b1101100 "
b11110100011010 *
#1275
b11110101000001 *
#1276
b11110100011010 *
#1396
b1101101 "
#1397
b1101100 "
#1398
b11110101000001 *
#1399
b1101101 "
b11110100011010 *
#1401
b11110101000001 *
#1402
b1101100 "
#1403
b1101101 "
#1404
b11110100011010 *
#1405
b11110101000001 *
#1466
b1101110 "
#1467
b1101101 "
#1468
b1101110 "
b11110101101000 *
#1469
b1101101 "
b11110101000001 *
#1470
b1101110 "
b11110101101000 *
#1471
b1101101 "
b11110101000001 *
#1472
b1101110 "
b11110101101000 *
#1473
b1101101 "
b11110101000001 *
#1474
b11110101101000 *
#1475
b11110101000001 *
#1476
b1101110 "
#1477
b1101101 "
#1478
b1101110 "
b11110101101000 *
#1479
b1101101 "
b11110101000001 *
#1480
b1101110 "
b11110101101000 *
#1481
b1101101 "
b11110101000001 *
#1482
b1101110 "
b11110101101000 *
#1483
b1101101 "
b11110101000001 *
#1484
b1101110 "
b11110101101000 *
#1485
b1101101 "
b11110101000001 *
#1486
b1101110 "
b11110101101000 *
#1487
b1101101 "
b11110101000001 *
#1488
b1101110 "
b11110101101000 *
#1489
b11110101000001 *
#1490
b11110101101000 *
#1491
b1101101 "
#1492
b1101110 "
#1493
b1101101 "
b11110101000001 *
#1494
b1101110 "
b11110101101000 *
#1495
b1101101 "
b11110101000001 *
#1496
b1101110 "
b11110101101000 *
#1497
b1101101 "
b11110101000001 *
#1498
b1101110 "
b11110101101000 *
#1499
b1101101 "
b11110101000001 *
#1500
b1101110 "
b11110101101000 *
#1501
b1101101 "
b11110101000001 *
#1502
b1101110 "
b11110101101000 *
#1503
b11110101000001 *
#1504
b11110101101000 *
#1511
b1101101 "
#1512
b1101110 "
#1513
b11110101000001 *
#1514
b11110101101000 *
#1538
b1101111 "
#1539
b1101110 "
#1540
b1101111 "
b11110110001111 *
#1541
b1101110 "
b11110101101000 *
#1542
b11110110001111 *
#1543
b11110101101000 *
#1544
b1101111 "
#1545
b1101110 "
#1546
b1101111 "
b11110110001111 *
#1547
b1101110 "
b11110101101000 *
#1548
b1101111 "
b11110110001111 *
#1549
b1101110 "
b11110101101000 *
#1550
b1101111 "
b11110110001111 *
#1551
b1101110 "
b11110101101000 *
#1552
b1101111 "
b11110110001111 *
#1553
b1101110 "
b11110101101000 *
#1554
b1101111 "
b11110110001111 *
#1555
b1101110 "
b11110101101000 *
#1556
b1101111 "
b11110110001111 *
#1557
b1101110 "
b11110101101000 *
#1558
b1101111 "
b11110110001111 *
#1559
b1101110 "
b11110101101000 *
#1560
b1101111 "
b11110110001111 *
#1561
b1101110 "
b11110101101000 *
#1562
b1101111 "
b11110110001111 *
#1563
b1101110 "
b11110101101000 *
#1564
b1101111 "
b11110110001111 *
#1565
b1101110 "
b11110101101000 *
#1566
b1101111 "
b11110110001111 *
#1567
b1101110 "
b11110101101000 *
#1568
b1101111 "
b11110110001111 *
#1569
b11110101101000 *
#1570
b11110110001111 *
#1573
b1101110 "
#1574
b1101111 "
#1575
b11110101101000 *
#1576
b11110110001111 *
#1579
b1101110 "
#1580
b1101111 "
#1581
b11110101101000 *
#1582
b11110110001111 *
#1585
b1101110 "
#1586
b1101111 "
#1587
b11110101101000 *
#1588
b11110110001111 *
#1610
b1100000 "
#1611
b1101111 "
#1612
b11101101000110 *
#1613
b11110110001111 *
#1618
b1100000 "
#1619
b1101111 "
#1620
b11101101000110 *
#1621
b11110110001111 *
#1623
b1100000 "
#1625
b1101111 "
b11101101000110 *
#1626
b1100000 "
#1627
b1101111 "
b11110110001111 *
#1628
b11101101000110 *
#1629
b11110110001111 *
#1632
b1100000 "
#1633
b1101111 "
#1634
b1100000 "
b11101101000110 *
#1635
b11110110001111 *
#1636
b11101101000110 *
#1637
b1101111 "
#1638
b1100000 "
#1639
b1101111 "
b11110110001111 *
#1640
b1100000 "
b11101101000110 *
#1641
b11110110001111 *
#1642
b11101101000110 *
#1645
b1101111 "
#1646
b1100000 "
#1647
b1101111 "
b11110110001111 *
#1648
b1100000 "
b11101101000110 *
#1649
b11110110001111 *
#1650
b11101101000110 *
#1653
b1101111 "
#1654
b1100000 "
#1655
b11110110001111 *
#1656
b11101101000110 *
#1671
b1101111 "
#1672
b1100000 "
#1673
b11110110001111 *
#1674
b11101101000110 *
#1699
b1101111 "
#1700
b1100000 "
#1701
b1101111 "
b11110110001111 *
#1702
b1100000 "
b11101101000110 *
#1703
b1101111 "
b11110110001111 *
#1704
b11101101000110 *
#1705
b11110110001111 *
#1715
b1101110 "
#1716
b1101111 "
#1717
b1101110 "
b11110101101000 *
#1718
b1101111 "
b11110110001111 *
#1719
b1101110 "
b11110101101000 *
#1720
b1101111 "
b11110110001111 *
#1721
b1101110 "
b11110101101000 *
#1722
b11110110001111 *
#1723
b11110101101000 *
#1735
b1101101 "
#1736
b1101110 "
#1737
b1101101 "
b11110101000001 *
#1738
b1101110 "
b11110101101000 *
#1739
b1101101 "
b11110101000001 *
#1740
b1101110 "
b11110101101000 *
#1741
b1101101 "
b11110101000001 *
#1742
b1101110 "
b11110101101000 *
#1743
b1101101 "
b11110101000001 *
#1744
b1101110 "
b11110101101000 *
#1745
b1101101 "
b11110101000001 *
#1746
b1101110 "
b11110101101000 *
#1747
b1101101 "
b11110101000001 *
#1748
b1101110 "
b11110101101000 *
#1749
b1101101 "
b11110101000001 *
#1750
b11110101101000 *
#1751
b11110101000001 *
#1898
b1101110 "
#1899
b1101101 "
#1900
b1101110 "
b11110101101000 *
#1901
b1101101 "
b11110101000001 *
#1902
b11110101101000 *
#1903
b11110101000001 *
#1904
b1101110 "
#1905
b1101101 "
#1906
b1101110 "
b11110101101000 *
#1907
b1101101 "
b11110101000001 *
#1908
b1101110 "
b11110101101000 *
#1909
b1101101 "
b11110101000001 *
#1910
b1101110 "
b11110101101000 *
#1911
b1101101 "
b11110101000001 *
#1912
b1101110 "
b11110101101000 *
#1913
b1101101 "
b11110101000001 *
#1914
b1101110 "
b11110101101000 *
#1915
b1101101 "
b11110101000001 *
#1916
b1101110 "
b11110101101000 *
#1917
b1101101 "
b11110101000001 *
#1918
b1101110 "
b11110101101000 *
#1919
b1101101 "
b11110101000001 *
#1920
b11110101101000 *
#1921
b11110101000001 *
#1922
b1101110 "
#1923
b1101101 "
#1924
b1101110 "
b11110101101000 *
#1925
b1101101 "
b11110101000001 *
#1926
b1101110 "
b11110101101000 *
#1927
b1101101 "
b11110101000001 *
#1928
b1101110 "
b11110101101000 *
#1929
b1101101 "
b11110101000001 *
#1930
b1101110 "
b11110101101000 *
#1931
b1101101 "
b11110101000001 *
#1932
b1101110 "
b11110101101000 *
#1933
b11110101000001 *
#1934
b11110101101000 *
#1935
b1101101 "
#1936
b1101110 "
#1937
b1101101 "
b11110101000001 *
#1938
b1101110 "
b11110101101000 *
#1939
b1101101 "
b11110101000001 *
#1940
b1101110 "
b11110101101000 *
#1941
b1101101 "
b11110101000001 *
#1942
b1101110 "
b11110101101000 *
#1943
b11110101000001 *
#1944
b11110101101000 *
#1947
b1101101 "
#1948
b1101110 "
#1949
b11110101000001 *
#1950
b11110101101000 *
#1988
b1101111 "
#1989
b1101110 "
#1990
b11110110001111 *
#1991
b11110101101000 *
#1992
b1101111 "
#1993
b1101110 "
#1994
b1101111 "
b11110110001111 *
#1995
b1101110 "
b11110101101000 *
#1996
b1101111 "
b11110110001111 *
#1997
b1101110 "
b11110101101000 *
#1998
b11110110001111 *
#1999
b11110101101000 *
#2000
b1101111 "
#2001
b1101110 "
#2002
b1101111 "
b11110110001111 *
#2003
b1101110 "
b11110101101000 *
#2004
b1101111 "
b11110110001111 *
#2005
b1101110 "
b11110101101000 *
#2006
b1101111 "
b11110110001111 *
#2007
b1101110 "
b11110101101000 *
#2008
b1101111 "
b11110110001111 *
#2009
b1101110 "
b11110101101000 *
#2010
b1101111 "
b11110110001111 *
#2011
b1101110 "
b11110101101000 *
#2012
b1101111 "
b11110110001111 *
#2013
b1101110 "
b11110101101000 *
#2014
b1101111 "
b11110110001111 *
#2015
b1101110 "
b11110101101000 *
#2016
b1101111 "
b11110110001111 *
#2017
b1101110 "
b11110101101000 *
#2018
b1101111 "
b11110110001111 *
#2019
b1101110 "
b11110101101000 *
#2020
b1101111 "
b11110110001111 *
#2021
b1101110 "
b11110101101000 *
#2022
b1101111 "
b11110110001111 *
#2023
b11110101101000 *
#2024
b11110110001111 *
#2025
b1101110 "
#2026
b1101111 "
#2027
b11110101101000 *
#2028
b11110110001111 *
#2056
b1100000 "
#2057
b1101111 "
#2058
b11101101000110 *
#2059
b11110110001111 *
#2064
b1100000 "
#2065
b1101111 "
#2066
b11101101000110 *
#2067
b11110110001111 *
#2072
b1100000 "
#2073
b1101111 "
#2074
b1100000 "
b11101101000110 *
#2075
b11110110001111 *
#2076
b11101101000110 *
#2077
b1101111 "
#2078
b1100000 "
#2079
b1101111 "
b11110110001111 *
#2080
b1100000 "
b11101101000110 *
#2081
b1101111 "
b11110110001111 *
#2082
b1100000 "
b11101101000110 *
#2083
b11110110001111 *
#2084
b1101111 "
b11101101000110 *
#2085
b1100000 "
#2086
b11110110001111 *
#2087
b1101111 "
b11101101000110 *
#2088
b1100000 "
#2089
b11110110001111 *
#2090
b1101111 "
b11101101000110 *
#2091
b1100000 "
#2092
b1101111 "
b11110110001111 *
#2093
b11101101000110 *
#2094
b1100000 "
b11110110001111 *
#2095
b1101111 "
#2096
b1100000 "
b11101101000110 *
#2097
b11110110001111 *
#2098
b11101101000110 *
#2107
b1101111 "
#2108
b1100000 "
#2109
b11110110001111 *
#2110
b11101101000110 *
#2147
b1101111 "
#2148
b1100000 "
#2149
b1101111 "
b11110110001111 *
#2150
b11101101000110 *
#2151
b11110110001111 *
#2159
b1101110 "
#2160
b1101111 "
#2161
b1101110 "
b11110101101000 *
#2162
b1101111 "
b11110110001111 *
#2163
b1101110 "
b11110101101000 *
#2164
b1101111 "
b11110110001111 *
#2165
b1101110 "
b11110101101000 *
#2166
b1101111 "
b11110110001111 *
#2167
b1101110 "
b11110101101000 *
#2168
b11110110001111 *
#2169
b11110101101000 *
#2179
b1101101 "
#2180
b1101110 "
#2181
b1101101 "
b11110101000001 *
#2182
b1101110 "
b11110101101000 *
#2183
b1101101 "
b11110101000001 *
#2184
b1101110 "
b11110101101000 *
#2185
b1101101 "
b11110101000001 *
#2186
b11110101101000 *
#2187
b11110101000001 *
#2216
b1101100 "
#2217
b1101101 "
#2218
b1101100 "
b11110100011010 *
#2219
b11110101000001 *
#2220
b11110100011010 *
#2221
b1101101 "
#2222
b1101100 "
#2223
b11110101000001 *
#2224
b1101101 "
b11110100011010 *
#2225
b1101100 "
#2226
b11110101000001 *
#2227
b11110100011010 *
#2273
b1101101 "
#2274
b1101100 "
#2275
b11110101000001 *
#2276
b11110100011010 *
#2287
b1101101 "
#2289
b1101100 "
b11110101000001 *
#2291
b11110100011010 *
#2297
b1101101 "
#2299
b11110101000001 *
#2300
b1101100 "
#2301
b1101101 "
#2302
b11110100011010 *
#2303
b11110101000001 *
#2304
b1101100 "
#2305
b1101101 "
#2306
b11110100011010 *
#2307
b11110101000001 *
#2310
b1101100 "
#2311
b1101101 "
#2312
b11110100011010 *
#2313
b11110101000001 *
#2362
b1101110 "
#2363
b1101101 "
#2364
b1101110 "
b11110101101000 *
#2365
b1101101 "
b11110101000001 *
#2366
b11110101101000 *
#2367
b11110101000001 *
#2368
b1101110 "
#2369
b1101101 "
#2370
b11110101101000 *
#2371
b11110101000001 *
#2374
b1101110 "
#2375
b1101101 "
#2376
b1101110 "
b11110101101000 *
#2377
b1101101 "
b11110101000001 *
#2378
b1101110 "
b11110101101000 *
#2379
b1101101 "
b11110101000001 *
#2380
b1101110 "
b11110101101000 *
#2381
b1101101 "
b11110101000001 *
#2382
b1101110 "
b11110101101000 *
#2383
b1101101 "
b11110101000001 *
#2384
b1101110 "
b11110101101000 *
#2385
b1101101 "
b11110101000001 *
#2386
b1101110 "
b11110101101000 *
#2387
b1101101 "
b11110101000001 *
#2388
b1101110 "
b11110101101000 *
#2389
b1101101 "
b11110101000001 *
#2390
b1101110 "
b11110101101000 *
#2391
b1101101 "
b11110101000001 *
#2392
b1101110 "
b11110101101000 *
#2393
b1101101 "
b11110101000001 *
#2394
b1101110 "
b11110101101000 *
#2395
b1101101 "
b11110101000001 *
#2396
b1101110 "
b11110101101000 *
#2397
b1101101 "
b11110101000001 *
#2398
b1101110 "
b11110101101000 *
#2399
b11110101000001 *
#2400
b11110101101000 *
#2411
b1101101 "
#2412
b1101110 "
#2413
b11110101000001 *
#2414
b11110101101000 *
#2422
b1101111 "
#2423
b1101110 "
#2424
b11110110001111 *
#2425
b11110101101000 *
#2428
b1101111 "
#2429
b1101110 "
#2430
b1101111 "
b11110110001111 *
#2431
b1101110 "
b11110101101000 *
#2432
b11110110001111 *
#2433
b11110101101000 *
#2434
b1101111 "
#2435
b1101110 "
#2436
b1101111 "
b11110110001111 *
#2437
b1101110 "
b11110101101000 *
#2438
b1101111 "
b11110110001111 *
#2439
b1101110 "
b11110101101000 *
#2440
b1101111 "
b11110110001111 *
#2441
b1101110 "
b11110101101000 *
#2442
b1101111 "
b11110110001111 *
#2443
b1101110 "
b11110101101000 *
#2444
b1101111 "
b11110110001111 *
#2445
b1101110 "
b11110101101000 *
#2446
b1101111 "
b11110110001111 *
#2447
b1101110 "
b11110101101000 *
#2448
b1101111 "
b11110110001111 *
#2449
b1101110 "
b11110101101000 *
#2450
b1101111 "
b11110110001111 *
#2451
b1101110 "
b11110101101000 *
#2452
b1101111 "
b11110110001111 *
#2453
b1101110 "
b11110101101000 *
#2454
b1101111 "
b11110110001111 *
#2455
b1101110 "
b11110101101000 *
#2456
b1101111 "
b11110110001111 *
#2457
b1101110 "
b11110101101000 *
#2458
b1101111 "
b11110110001111 *
#2459
b1101110 "
b11110101101000 *
#2460
b1101111 "
b11110110001111 *
#2461
b11110101101000 *
#2462
b11110110001111 *
#2463
b1101110 "
#2464
b1101111 "
#2465
b11110101101000 *
#2466
b11110110001111 *
#2477
b1101110 "
#2478
b1101111 "
#2479
b11110101101000 *
#2480
b11110110001111 *
#2498
b1100000 "
#2499
b1101111 "
#2500
b11101101000110 *
#2501
b11110110001111 *
#2502
b1100000 "
#2503
b1101111 "
#2504
b1100000 "
b11101101000110 *
#2505
b11110110001111 *
#2506
b11101101000110 *
#2507
b1101111 "
#2508
b1100000 "
#2509
b1101111 "
b11110110001111 *
#2510
b1100000 "
b11101101000110 *
#2511
b11110110001111 *
#2512
b1101111 "
b11101101000110 *
#2514
b11110110001111 *
#2516
b1100000 "
#2517
b1101111 "
#2518
b11101101000110 *
#2519
b1100000 "
b11110110001111 *
#2520
b1101111 "
#2521
b11101101000110 *
#2522
b1100000 "
b11110110001111 *
#2523
b1101111 "
#2524
b1100000 "
b11101101000110 *
#2525
b11110110001111 *
#2526
b11101101000110 *
#2583
b1101111 "
#2584
b1100000 "
#2585
b11110110001111 *
#2586
b1101111 "
b11101101000110 *
#2587
b1100000 "
#2588
b11110110001111 *
#2589
b1101111 "
b11101101000110 *
#2590
b1100000 "
#2591
b1101111 "
b11110110001111 *
#2592
b11101101000110 *
#2593
b11110110001111 *
#2599
b1101110 "
#2600
b1101111 "
#2601
b1101110 "
b11110101101000 *
#2602
b1101111 "
b11110110001111 *
#2603
b1101110 "
b11110101101000 *
#2604
b1101111 "
b11110110001111 *
